﻿
DisplayName "Hades"



EVENT   1
 PAGE   1
  ShowMessageFace("sinigami_fc1",0,0,2,1)
  ShowMessage("\\n<Reaper>If you go through there, there's no coming back. The magic circle will return you from whence you came.")
  205(-1,bytes(0x04,0x08,0x6f,0x3a,0x13,0x52,0x50,0x47,0x3a,0x3a,0x4d,0x6f,0x76,0x65,0x52,0x6f,0x75,0x74,0x65,0x09,0x3a,0x0c,0x40,0x72,0x65,0x70,0x65,0x61,0x74,0x46,0x3a,0x0f,0x40,0x73,0x6b,0x69,0x70,0x70,0x61,0x62,0x6c,0x65,0x46,0x3a,0x0a,0x40,0x77,0x61,0x69,0x74,0x54,0x3a,0x0a,0x40,0x6c,0x69,0x73,0x74,0x5b,0x07,0x6f,0x3a,0x15,0x52,0x50,0x47,0x3a,0x3a,0x4d,0x6f,0x76,0x65,0x43,0x6f,0x6d,0x6d,0x61,0x6e,0x64,0x07,0x3a,0x0a,0x40,0x63,0x6f,0x64,0x65,0x69,0x06,0x3a,0x10,0x40,0x70,0x61,0x72,0x61,0x6d,0x65,0x74,0x65,0x72,0x73,0x5b,0x00,0x6f,0x3b,0x0a,0x07,0x3b,0x0b,0x69,0x00,0x3b,0x0c,0x5b,0x00))
  0()



EVENT   2
 PAGE   1
  PictureDisplay(5,"80_sinigami_st01",0,0,0,0,100,100,0,0)
  PictureMove(5,null,0,0,0,0,100,100,255,0,60,true)
  ShowMessageFace("sinigami_fc1",0,0,2,1)
  ShowMessage("\\n<Reaper>Return to your world... The magic circle over there will take you.")
  PictureMove(5,null,0,0,0,0,100,100,0,0,30,true)
  PictureClear(5)
  0()

EVENT   5
 PAGE   1
  250(bytes(0x04,0x08,0x6f,0x3a,0x0c,0x52,0x50,0x47,0x3a,0x3a,0x53,0x45,0x08,0x3a,0x0a,0x40,0x6e,0x61,0x6d,0x65,0x49,0x22,0x0b,0x4d,0x61,0x67,0x69,0x63,0x32,0x06,0x3a,0x06,0x45,0x54,0x3a,0x0b,0x40,0x70,0x69,0x74,0x63,0x68,0x69,0x69,0x3a,0x0c,0x40,0x76,0x6f,0x6c,0x75,0x6d,0x65,0x69,0x55))
  ChangeSwitch(100,100,1)
  If(1,1002,0,0,0)
   TeleportPlayer(0,126,15,13,2,1)
   ChangeVariable(21,21,0,0,2)
   ChangeVariable(22,22,0,0,295)
   ChangeVariable(23,23,0,0,356)
   216(0)
   0()
  EndIf()
  If(1,1002,0,1,0)
   ChangeSwitch(100,100,0)
   TeleportPlayer(0,12,9,58,2,1)
   216(0)
   0()
  EndIf()
  If(1,1002,0,2,0)
   TeleportPlayer(0,5,24,11,2,1)
   216(0)
   0()
  EndIf()
  If(1,1002,0,3,0)
   TeleportPlayer(0,7,10,15,8,1)
   216(0)
   0()
  EndIf()
  If(1,1002,0,4,0)
   TeleportPlayer(0,29,36,24,8,1)
   216(0)
   0()
  EndIf()
  If(1,1002,0,5,0)
   TeleportPlayer(0,235,29,4,8,1)
   216(0)
   0()
  EndIf()
  If(1,1002,0,6,0)
   TeleportPlayer(0,51,36,6,8,1)
   216(0)
   0()
  EndIf()
  If(1,1002,0,7,0)
   TeleportPlayer(0,256,13,5,2,1)
   216(0)
   0()
  EndIf()
  If(1,1002,0,8,0)
   TeleportPlayer(0,341,16,28,8,1)
   216(0)
   0()
  EndIf()
  If(1,1002,0,9,0)
   TeleportPlayer(0,31,42,28,8,1)
   216(0)
   0()
  EndIf()
  If(1,1002,0,10,0)
   TeleportPlayer(0,61,20,9,8,1)
   216(0)
   0()
  EndIf()
  If(1,1002,0,11,0)
   TeleportPlayer(0,139,28,13,8,1)
   216(0)
   0()
  EndIf()
  If(1,1002,0,12,0)
   TeleportPlayer(0,141,23,55,2,1)
   216(0)
   0()
  EndIf()
  If(1,1002,0,13,0)
   TeleportPlayer(0,28,22,11,8,1)
   216(0)
   0()
  EndIf()
  If(1,1002,0,14,0)
   TeleportPlayer(0,13,47,5,8,1)
   216(0)
   0()
  EndIf()
  If(1,1002,0,15,0)
   TeleportPlayer(0,477,91,86,8,1)
   216(0)
   0()
  EndIf()
  If(1,1002,0,16,0)
   TeleportPlayer(0,338,9,12,8,1)
   216(0)
   0()
  EndIf()
  If(1,1002,0,17,0)
   TeleportPlayer(0,43,20,6,8,1)
   216(0)
   0()
  EndIf()
  If(1,1002,0,18,0)
   TeleportPlayer(0,422,16,6,8,1)
   216(0)
   0()
  EndIf()
  If(1,1002,0,19,0)
   ChangeInventory_Item(523,1,0,1)
   ChangeVariable(1032,1032,0,0,3)
   ChangeVariable(1002,1002,0,0,18)
   ChangeSwitch(94,94,1)
   ChangeSaveEnabled(1)
   TeleportPlayer(0,172,34,11,8,1)
   216(0)
   0()
  EndIf()
  If(1,1002,0,20,0)
   TeleportPlayer(0,39,10,35,8,1)
   216(0)
   0()
  EndIf()
  If(1,1002,0,21,0)
   ChangeSwitch(100,100,0)
   TeleportPlayer(0,685,15,20,4,1)
   216(0)
   0()
  EndIf()
  If(1,1002,0,22,0)
   ChangeSwitch(100,100,0)
   TeleportPlayer(0,2,20,211,4,1)
   216(0)
   0()
  EndIf()
  If(1,1002,0,23,0)
   TeleportPlayer(0,25,36,33,8,1)
   216(0)
   0()
  EndIf()
  If(1,1002,0,24,0)
   TeleportPlayer(0,21,18,27,8,1)
   216(0)
   0()
  EndIf()
  If(1,1002,0,25,0)
   TeleportPlayer(0,484,44,14,8,1)
   ChangeSwitch(100,100,0)
   216(1)
   0()
  EndIf()
  If(1,1002,0,26,0)
   TeleportPlayer(0,53,23,46,8,1)
   216(0)
   0()
  EndIf()
  If(1,1002,0,27,0)
   TeleportPlayer(0,2,236,179,2,1)
   216(0)
   0()
  EndIf()
  If(1,1002,0,28,0)
   ChangeSwitch(100,100,0)
   TeleportPlayer(0,2,223,180,4,1)
   216(0)
   0()
  EndIf()
  If(1,1002,0,29,0)
   TeleportPlayer(0,49,6,17,8,1)
   216(0)
   0()
  EndIf()
  If(1,1002,0,30,0)
   TeleportPlayer(0,2,248,146,4,1)
   216(0)
   0()
  EndIf()
  If(1,1002,0,31,0)
   TeleportPlayer(0,38,30,72,8,1)
   216(0)
   0()
  EndIf()
  If(1,1002,0,32,0)
   ChangeSwitch(100,100,0)
   TeleportPlayer(0,715,6,13,2,1)
   216(0)
   0()
  EndIf()
  If(1,1002,0,33,0)
   ChangeSwitch(100,100,0)
   TeleportPlayer(0,176,35,32,8,1)
   216(0)
   0()
  EndIf()
  If(1,1002,0,34,0)
   TeleportPlayer(0,143,48,34,8,1)
   216(0)
   0()
  EndIf()
  If(1,1002,0,35,0)
   TeleportPlayer(0,45,16,28,8,1)
   216(0)
   0()
  EndIf()
  If(1,1002,0,36,0)
   TeleportPlayer(0,23,42,6,8,1)
   216(0)
   0()
  EndIf()
  If(1,1002,0,37,0)
   TeleportPlayer(0,514,51,7,8,1)
   216(0)
   0()
  EndIf()
  If(1,1002,0,38,0)
   TeleportPlayer(0,182,19,9,8,1)
   216(0)
   0()
  EndIf()
  If(1,1002,0,39,0)
   TeleportPlayer(0,222,16,59,8,1)
   216(0)
   0()
  EndIf()
  If(1,1002,0,40,0)
   TeleportPlayer(0,41,38,58,8,1)
   216(0)
   0()
  EndIf()
  If(1,1002,0,41,0)
   TeleportPlayer(0,484,14,10,8,1)
   216(0)
   0()
  EndIf()
  If(1,1002,0,42,0)
   ChangeSwitch(100,100,0)
   TeleportPlayer(0,369,5,29,6,1)
   216(0)
   0()
  EndIf()
  0()


