﻿// EVENT 0824
Name "カオスレジェンド"

ChangeVariable(11,11,0,2,1,4)
If(1,11,0,1,0)
 ChangeInventoryWeapon(3952,0,0,1,false)
 EndEventProcessing()
 0()
EndIf()
If(1,11,0,2,0)
 ChangeInventoryWeapon(3953,0,0,1,false)
 EndEventProcessing()
 0()
EndIf()
If(1,11,0,3,0)
 ChangeInventoryWeapon(3951,0,0,1,false)
 EndEventProcessing()
 0()
EndIf()
If(1,11,0,4,0)
 ChangeInventoryWeapon(3954,0,0,1,false)
 EndEventProcessing()
 0()
EndIf()
0()
